{
    "key": "group_59229bda27ee2",
    "title": "Header Settings",
    "private": true,
    "fields": [
        {
            "key": "field_59229bda313bf",
            "label": "Header",
            "name": "",
            "type": "tab",
            "instructions": "",
            "required": 0,
            "conditional_logic": 0,
            "wrapper": {
                "width": "",
                "class": "",
                "id": ""
            },
            "placement": "top",
            "endpoint": 0
        },
        {
            "key": "field_5937e0a52b48cexmod15",
            "label": "",
            "name": "",
            "type": "message",
            "instructions": "",
            "required": 0,
            "conditional_logic": 0,
            "wrapper": {
                "width": "",
                "class": "",
                "id": ""
            },
            "message": "<p class=\"message\"><span class=\"icon ion-information-circled\"></span> <b>Note:</b> these settings apply to all header elements of your website. You can override some global setting for individual pages.</p>",
            "new_lines": "",
            "esc_html": 0
        },
        {
            "key": "field_59229bda317ae",
            "label": "Header layout",
            "name": "global_header_menu_style",
            "type": "image_option",
            "instructions": "Choose header template",
            "required": 0,
            "conditional_logic": 0,
            "wrapper": {
                "width": "",
                "class": "",
                "id": ""
            },
            "image_option_value": [
                {
                    "name": "style1",
                    "description": "Transparent",
                    "src": "nor__listing_01.svg"
                },
                {
                    "name": "style2",
                    "description": "Filled Background",
                    "src": "nor__listing_02.svg"
                },
                {
                    "name": "style3",
                    "description": "Wrapped",
                    "src": "nor__listing_03.svg"
                },
                {
                    "name": "style4",
                    "description": "Centered Logo",
                    "src": "nor__listing_05.svg"
                },
                {
                    "name": "style5",
                    "description": "Top Logo",
                    "src": "nor__listing_04.svg"
                },
                {
                    "name": "style6",
                    "description": "Sidebar",
                    "src": "nor__listing_06.svg"
                }
            ],
            "default_value": "style1"
        },
        {
            "key": "field_59229bda31f95",
            "label": "Blank spacer under header",
            "name": "global_header_menu_add_cap",
            "type": "radio",
            "instructions": "We recommend use this setting for transparent and fixed header navigation",
            "required": 0,
            "conditional_logic": [
                [
                    {
                        "field": "field_59229bda317ae",
                        "operator": "!=",
                        "value": "style6"
                    }
                ]
            ],
            "wrapper": {
                "width": "",
                "class": "",
                "id": ""
            },
            "choices": {
                "yes": "Add spacer",
                "no": "Don't add"
            },
            "allow_null": 0,
            "other_choice": 0,
            "save_other_choice": 0,
            "default_value": "yes",
            "layout": "horizontal",
            "return_format": "value"
        },
        {
            "key": "field_59229bda31bb0",
            "label": "Content wrapper",
            "name": "global_header_menu_use_wrapper",
            "type": "true_false",
            "instructions": "Use header content wrapper",
            "required": 0,
            "conditional_logic": 0,
            "wrapper": {
                "width": "",
                "class": "",
                "id": ""
            },
            "message": "",
            "default_value": 0,
            "ui": 1,
            "ui_on_text": "Yes",
            "ui_off_text": "No"
        },
        {
            "key": "field_592d3cfcc0e1c",
            "label": "Height",
            "name": "global_header_menu_height",
            "type": "norebro_responsive_height",
            "instructions": "Set up header height",
            "required": 0,
            "conditional_logic": 0,
            "wrapper": {
                "width": "",
                "class": "",
                "id": ""
            },
            "default_value": ""
        },
        {
            "key": "field_59229bda33b3d",
            "label": "Background color",
            "name": "global_header_menu_background_color",
            "type": "norebro_color",
            "instructions": "Choose header background color",
            "required": 0,
            "wrapper": {
                "width": "",
                "class": "",
                "id": ""
            },
            "default_value": ""
        },
        {
            "key": "field_59229bda34745",
            "label": "Bottom border",
            "name": "global_header_menu_hide_border",
            "type": "true_false",
            "instructions": "Hide bottom border from header?",
            "required": 0,
            "conditional_logic": 0,
            "wrapper": {
                "width": "",
                "class": "",
                "id": ""
            },
            "message": "",
            "default_value": 0,
            "ui": 1,
            "ui_on_text": "Yes",
            "ui_off_text": "No"
        },
        {
            "key": "field_59229bda34f19",
            "label": "Bottom border type",
            "name": "global_header_menu_border_type",
            "type": "select",
            "instructions": "Choose border stroke type",
            "required": 0,
            "conditional_logic": [
                [
                    {
                        "field": "field_59229bda34745",
                        "operator": "!=",
                        "value": "1"
                    }
                ]
            ],
            "wrapper": {
                "width": "",
                "class": "",
                "id": ""
            },
            "choices": {
                "solid": "Solid",
                "dashed": "Dashed",
                "dotted": "Dotted",
                "double": "Double"
            },
            "default_value": [
                "solid"
            ],
            "allow_null": 0,
            "multiple": 0,
            "ui": 0,
            "ajax": 0,
            "return_format": "value",
            "placeholder": ""
        },
        {
            "key": "field_59229bda34b30",
            "label": "Bottom border color",
            "name": "global_header_menu_border_color",
            "type": "norebro_color",
            "instructions": "Choose bottom border color",
            "required": 0,
            "conditional_logic": [
                [
                    {
                        "field": "field_59229bda34745",
                        "operator": "!=",
                        "value": "1"
                    }
                ]
            ],
            "wrapper": {
                "width": "",
                "class": "",
                "id": ""
            },
            "default_value": ""
        },
        {
            "key": "field_59224bda313bf",
            "label": "Sticky Header",
            "name": "",
            "type": "tab",
            "instructions": "",
            "required": 0,
            "conditional_logic": 0,
            "wrapper": {
                "width": "",
                "class": "",
                "id": ""
            },
            "placement": "top",
            "endpoint": 0
        },
        {
            "key": "field_59229bda3432a",
            "label": "Sticky header",
            "name": "global_header_menu_fixed",
            "type": "true_false",
            "instructions": "Enable sticky header, when you scrolling the page",
            "required": 0,
            "conditional_logic": [
                [
                    {
                        "field": "field_59229bda317ae",
                        "operator": "!=",
                        "value": "style6"
                    }
                ]
            ],
            "wrapper": {
                "width": "",
                "class": "",
                "id": ""
            },
            "message": "",
            "default_value": 0,
            "ui": 1,
            "ui_on_text": "Yes",
            "ui_off_text": "No"
        },
        {
            "key": "field_593743a434383415",
            "label": "Sticky header on mobile",
            "name": "global_header_mobile_menu_fixed",
            "type": "true_false",
            "instructions": "Enable sticky header on mobile devices",
            "required": 0,
            "conditional_logic": 0,
            "wrapper": {
                "width": "",
                "class": "",
                "id": ""
            },
            "message": "",
            "default_value": 0,
            "ui": 1,
            "ui_on_text": "Yes",
            "ui_off_text": "No"
        },
        {
            "key": "field_59374453f84415",
            "label": "Initial offset",
            "name": "global_header_fixed_initial_offset",
            "type": "number",
            "instructions": "Scroll position when sticky header begins to animate <em>| Use pixels</em>",
            "required": 0,
            "conditional_logic": 0,
            "wrapper": {
                "width": "",
                "class": "",
                "id": ""
            },
            "default_value": "150",
            "placeholder": "",
            "prepend": "",
            "append": "px",
            "min": 1,
            "max": 100000,
            "step": ""
        },
        {
            "key": "field_5937433334383415",
            "label": "Height",
            "name": "global_header_fixed_height",
            "type": "norebro_responsive_height",
            "instructions": "Set up sticky header height",
            "required": 0,
            "conditional_logic": 0
        },
        {
            "key": "field_593743334383415",
            "label": "Background color",
            "name": "global_header_fixed_background_color",
            "type": "norebro_color",
            "instructions": "Choose sticky header background color",
            "required": 0,
            "conditional_logic": 0,
            "wrapper": {
                "width": "",
                "class": "",
                "id": ""
            },
            "default_value": ""
        },
        {
            "key": "field_59229bda33f448347i7a6",
            "label": "Typography",
            "name": "global_header_fixed_text_typo",
            "type": "norebro_typo",
            "instructions": "Set up typography styles for sticky header",
            "required": 0,
            "conditional_logic": 0,
            "wrapper": {
                "width": "",
                "class": "",
                "id": ""
            },
            "add_theme_inherited": true
        },
        {
            "key": "field_593744334383415",
            "label": "Bottom border",
            "name": "global_fixed_header_menu_hide_border",
            "type": "true_false",
            "instructions": "Hide bottom border from sticky header?",
            "required": 0,
            "conditional_logic": 0,
            "wrapper": {
                "width": "",
                "class": "",
                "id": ""
            },
            "message": "",
            "default_value": 1,
            "ui": 1,
            "ui_on_text": "Yes",
            "ui_off_text": "No"
        },
        {
            "key": "field_59374433f83415",
            "label": "Bottom border type",
            "name": "global_fixed_header_menu_border_type",
            "type": "select",
            "instructions": "Choose border stroke type",
            "required": 0,
            "conditional_logic": [
                [
                    {
                        "field": "field_593744334383415",
                        "operator": "!=",
                        "value": "1"
                    }
                ]
            ],
            "wrapper": {
                "width": "",
                "class": "",
                "id": ""
            },
            "choices": {
                "solid": "Solid",
                "dashed": "Dashed",
                "dotted": "Dotted",
                "double": "Double"
            },
            "default_value": [
                "solid"
            ],
            "allow_null": 0,
            "multiple": 0,
            "ui": 0,
            "ajax": 0,
            "return_format": "value",
            "placeholder": ""
        },
        {
            "key": "field_59374433f84415",
            "label": "Bottom border color",
            "name": "global_fixed_header_menu_border_color",
            "type": "norebro_color",
            "instructions": "Choose bottom border color",
            "required": 0,
            "conditional_logic": [
                [
                    {
                        "field": "field_593744334383415",
                        "operator": "!=",
                        "value": "1"
                    }
                ]
            ],
            "wrapper": {
                "width": "",
                "class": "",
                "id": ""
            },
            "default_value": ""
        },
        {
            "key": "field_59221bda313bf",
            "label": "Menu",
            "name": "",
            "type": "tab",
            "instructions": "",
            "required": 0,
            "conditional_logic": 0,
            "wrapper": {
                "width": "",
                "class": "",
                "id": ""
            },
            "placement": "top",
            "endpoint": 0
        },
        {
            "key": "field_59229bda3374d",
            "label": "Menu type",
            "name": "global_menu_type",
            "type": "radio",
            "instructions": "Choose menu type for all pages",
            "required": 0,
            "conditional_logic": 0,
            "wrapper": {
                "width": "",
                "class": "",
                "id": ""
            },
            "choices": {
                "full": "Extended menu",
                "hamburger": "Hamburger menu"
            },
            "allow_null": 0,
            "other_choice": 0,
            "save_other_choice": 0,
            "default_value": "full",
            "layout": "horizontal",
            "return_format": "value"
        },
        {
            "key": "field_59229bda3374dmod2",
            "label": "Hamburger position",
            "name": "global_menu_hamburger_align",
            "type": "radio",
            "instructions": "Choose hamburger menu position",
            "required": 0,
            "conditional_logic": [
                [
                    {
                        "field": "field_59229bda3374d",
                        "operator": "==",
                        "value": "hamburger"
                    }
                ]
            ],
            "wrapper": {
                "width": "",
                "class": "",
                "id": ""
            },
            "choices": {
                "right": "Inside header",
                "inside_panel": "Inside side panel"
            },
            "allow_null": 0,
            "other_choice": 0,
            "save_other_choice": 0,
            "default_value": "full",
            "layout": "horizontal",
            "return_format": "value"
        },
        {
            "key": "field_59229bda317ae_modd",
            "label": "Overlay menu layout",
            "name": "global_fullscreen_menu_style",
            "type": "image_option",
            "instructions": "Choose layout type for overlay menu",
            "required": 0,
            "conditional_logic": [
                [
                    {
                        "field": "field_59229bda3374d",
                        "operator": "==",
                        "value": "hamburger"
                    }
                ]
            ],
            "wrapper": {
                "width": "",
                "class": "",
                "id": ""
            },
            "choices": {
                "default": "Default",
                "simple": "Simple",
                "centered": "Centered",
                "split": "Splited"
            },
            "image_option_value": [
                {
                    "name": "default",
                    "description": "Default",
                    "src": "nor__listing_22.svg"
                },
                {
                    "name": "simple",
                    "description": "Left Side",
                    "src": "nor__listing_21.svg"
                },
                {
                    "name": "centered",
                    "description": "Centered",
                    "src": "nor__listing_19.svg"
                },
                {
                    "name": "split",
                    "description": "Splited",
                    "src": "nor__listing_20.svg"
                }
            ],
            "allow_null": 0,
            "other_choice": 0,
            "save_other_choice": 0,
            "default_value": "default",
            "layout": "vertical",
            "return_format": "value",
            "multiple": 0,
            "ui": 0,
            "ajax": 0,
            "placeholder": ""
        },
        {
            "key": "field_59229bda32d24",
            "label": "Overlay menu logo",
            "name": "global_overlay_menu_logo",
            "type": "clone",
            "instructions": "Choose overlay menu logo",
            "required": 0,
            "wrapper": {
                "width": "",
                "class": "",
                "id": ""
            },
            "clone": [
                "field_5936b2dd92555",
                "field_5936b35713666",
                "field_5936b35733221"
            ],
            "display": "group",
            "layout": "table",
            "prefix_label": 0,
            "prefix_name": 0
        },
        {
            "key": "field_59229bda33b33dandmod",
            "label": "Overlay menu background",
            "name": "global_fullscreen_menu_background_color",
            "type": "norebro_color",
            "instructions": "Choose overlay background color",
            "conditional_logic": [
                [
                    {
                        "field": "field_59229bda3374d",
                        "operator": "==",
                        "value": "hamburger"
                    }
                ]
            ],
            "required": 0,
            "wrapper": {
                "width": "",
                "class": "",
                "id": ""
            },
            "default_value": ""
        },
        {
            "key": "field_59229bda33f44867i7a6",
            "label": "Overlay menu typography",
            "name": "global_fullscreen_menu_text_typo",
            "type": "norebro_typo",
            "instructions": "Set up typography styles for fullscreen menu",
            "required": 0,
            "conditional_logic": [
                [
                    {
                        "field": "field_59229bda3374d",
                        "operator": "==",
                        "value": "hamburger"
                    }
                ]
            ],
            "wrapper": {
                "width": "",
                "class": "",
                "id": ""
            },
            "add_theme_inherited": true
        },
        {
            "key": "field_59229bda33f44",
            "label": "Typography",
            "name": "global_header_menu_text_typo",
            "type": "norebro_typo",
            "instructions": "Set up typography for header",
            "required": 0,
            "conditional_logic": 0,
            "wrapper": {
                "width": "",
                "class": "",
                "id": ""
            },
            "add_theme_inherited": true
        },
        {
            "key": "field_59374453f44415",
            "label": "Dropdown carets",
            "name": "global_header_dropdown_carets_visibility",
            "type": "true_false",
            "instructions": "Show carets on multi level menu",
            "required": 0,
            "conditional_logic": 0,
            "wrapper": {
                "width": "",
                "class": "",
                "id": ""
            },
            "message": "",
            "default_value": 1,
            "ui": 1,
            "ui_on_text": "Yes",
            "ui_off_text": "No"
        },
        {
            "key": "field_59221bd413bf",
            "label": "Mobile Menu",
            "name": "",
            "type": "tab",
            "instructions": "",
            "required": 0,
            "conditional_logic": 0,
            "wrapper": {
                "width": "",
                "class": "",
                "id": ""
            },
            "placement": "top",
            "endpoint": 0
        },
        {
            "key": "field_5937445484415",
            "label": "Mobile menu position",
            "name": "global_mobile_menu_position",
            "type": "select",
            "instructions": "Choose mobile menu position",
            "required": 0,
            "conditional_logic": 0,
            "wrapper": {
                "width": "",
                "class": "",
                "id": ""
            },
            "choices": {
                "left": "Slide from left",
                "right": "Slide from right"
            },
            "default_value": [
                "left"
            ],
            "allow_null": 0,
            "multiple": 0,
            "ui": 0,
            "ajax": 0,
            "return_format": "value",
            "placeholder": ""
        },
        {
            "key": "field_59229bda33b33234fas",
            "label": "Mobile menu background color",
            "name": "global_mobile_menu_background_color",
            "type": "norebro_color",
            "instructions": "Choose background overlay color",
            "required": 0,
            "wrapper": {
                "width": "",
                "class": "",
                "id": ""
            },
            "default_value": ""
        },
        {
            "key": "field_59267bda33b33234fas",
            "label": "Mobile header menu color",
            "name": "global_mobile_header_menu_color",
            "type": "norebro_color",
            "instructions": "Choose color for header items",
            "required": 0,
            "wrapper": {
                "width": "",
                "class": "",
                "id": ""
            },
            "default_value": ""
        },
        {
            "key": "field_59229bda36234d1",
            "label": "Mobile menu typography",
            "name": "global_mobile_menu_typo",
            "type": "norebro_typo",
            "instructions": "Set up typography for mobile menu",
            "required": 0,
            "conditional_logic": 0,
            "wrapper": {
                "width": "",
                "class": "",
                "id": ""
            },
            "add_theme_inherited": true
        },
        {
            "key": "field_5937445364415",
            "label": "Search visibility",
            "name": "global_mobile_search_visibility",
            "type": "true_false",
            "instructions": "Show search on mobile menu",
            "required": 0,
            "conditional_logic": 0,
            "wrapper": {
                "width": "",
                "class": "",
                "id": ""
            },
            "message": "",
            "default_value": 1,
            "ui": 1,
            "ui_on_text": "Yes",
            "ui_off_text": "No"
        },
        {
            "key": "field_59374453a84415",
            "label": "Social icons position",
            "name": "global_header_mobile_social_position",
            "type": "select",
            "instructions": "Show or hide social icons on mobile menu",
            "required": 0,
            "conditional_logic": 0,
            "wrapper": {
                "width": "",
                "class": "",
                "id": ""
            },
            "choices": {
                "default": "Default",
                "inside": "Inside overlay menu"
            },
            "default_value": [
                "default"
            ],
            "allow_null": 0,
            "multiple": 0,
            "ui": 0,
            "ajax": 0,
            "return_format": "value",
            "placeholder": ""
        },
        {
            "key": "field_59344453f84415",
            "label": "Lang switcher position",
            "name": "global_header_mobile_lang_position",
            "type": "select",
            "instructions": "Choose WPML lang switcher position on mobile devices",
            "required": 0,
            "conditional_logic": 0,
            "wrapper": {
                "width": "",
                "class": "",
                "id": ""
            },
            "choices": {
                "default": "Default",
                "inside": "Inside overlay menu"
            },
            "default_value": [
                "default"
            ],
            "allow_null": 0,
            "multiple": 0,
            "ui": 0,
            "ajax": 0,
            "return_format": "value",
            "placeholder": ""
        },
        {
            "key": "field_59374443f84415",
            "label": "Cart icon position",
            "name": "global_header_mobile_cart_position",
            "type": "select",
            "instructions": "Choose cart icon position on mobile devices",
            "required": 0,
            "conditional_logic": 0,
            "wrapper": {
                "width": "",
                "class": "",
                "id": ""
            },
            "choices": {
                "default": "Default",
                "inside": "Inside overlay menu"
            },
            "default_value": [
                "default"
            ],
            "allow_null": 0,
            "multiple": 0,
            "ui": 0,
            "ajax": 0,
            "return_format": "value",
            "placeholder": ""
        },

        {
            "key": "field_59229bda35325",
            "label": "Subheader",
            "name": "",
            "type": "tab",
            "instructions": "",
            "required": 0,
            "conditional_logic": 0,
            "wrapper": {
                "width": "",
                "class": "",
                "id": ""
            },
            "placement": "top",
            "endpoint": 0
        },
        {
            "key": "field_59229bda35701",
            "label": "Visibility",
            "name": "global_header_menu_hide_contacts_bar",
            "type": "true_false",
            "instructions": "Hide subheader from all pages?",
            "required": 0,
            "conditional_logic": 0,
            "wrapper": {
                "width": "",
                "class": "",
                "id": ""
            },
            "message": "",
            "default_value": 0,
            "ui": 1,
            "ui_on_text": "Yes",
            "ui_off_text": "No"
        },
        {
            "key": "field_592d3dfbff372",
            "label": "Height",
            "name": "global_subheader_height",
            "type": "norebro_responsive_height",
            "instructions": "Set up subheader height",
            "required": 0,
            "conditional_logic": 0,
            "wrapper": {
                "width": "",
                "class": "",
                "id": ""
            },
            "default_value": ""
        },
        {
            "key": "field_59229bda366f4",
            "label": "Content items <em>| left side</em>",
            "name": "global_header_menu_subheader_items_left",
            "type": "repeater",
            "instructions": "Add content items to subheader",
            "required": 0,
            "conditional_logic": 0,
            "wrapper": {
                "width": "",
                "class": "",
                "id": ""
            },
            "collapsed": "",
            "min": 0,
            "max": 20,
            "layout": "table",
            "button_label": "+ Add item",
            "sub_fields": [
                {
                    "key": "field_59229bda6c954",
                    "label": "Items list",
                    "name": "items",
                    "type": "text",
                    "instructions": "",
                    "required": 0,
                    "conditional_logic": 0,
                    "wrapper": {
                        "width": "",
                        "class": "",
                        "id": ""
                    },
                    "default_value": "",
                    "placeholder": "",
                    "prepend": "",
                    "append": "",
                    "maxlength": 100
                }
            ]
        },
        {
            "key": "field_59229bda366f5",
            "label": "Content items <em>| right side</em>",
            "name": "global_header_menu_subheader_items_right",
            "type": "repeater",
            "instructions": "Add content items to subheader",
            "required": 0,
            "conditional_logic": 0,
            "wrapper": {
                "width": "",
                "class": "",
                "id": ""
            },
            "collapsed": "",
            "min": 0,
            "max": 20,
            "layout": "table",
            "button_label": "+ Add item",
            "sub_fields": [
                {
                    "key": "field_59229bda6c955",
                    "label": "Items list",
                    "name": "items",
                    "type": "text",
                    "instructions": "",
                    "required": 0,
                    "conditional_logic": 0,
                    "wrapper": {
                        "width": "",
                        "class": "",
                        "id": ""
                    },
                    "default_value": "",
                    "placeholder": "",
                    "prepend": "",
                    "append": "",
                    "maxlength": 100
                }
            ]
        },
        {
            "key": "field_59229bda36adb",
            "label": "Background color",
            "name": "global_header_menu_contacts_bar_background",
            "type": "norebro_color",
            "instructions": "Choose background color for subheader ",
            "required": 0,
            "conditional_logic": 0,
            "wrapper": {
                "width": "",
                "class": "",
                "id": ""
            },
            "default_value": ""
        },
        {
            "key": "field_59229bda36ed1",
            "label": "Typography",
            "name": "global_header_menu_contacts_bar_text_typo",
            "type": "norebro_typo",
            "instructions": "Set up typography for subheader",
            "required": 0,
            "conditional_logic": 0,
            "wrapper": {
                "width": "",
                "class": "",
                "id": ""
            },
            "add_theme_inherited": true
        },
        {
            "key": "field_59229bda372c9",
            "label": "Header Title",
            "name": "",
            "type": "tab",
            "instructions": "",
            "required": 0,
            "conditional_logic": 0,
            "wrapper": {
                "width": "",
                "class": "",
                "id": ""
            },
            "placement": "top",
            "endpoint": 0
        },

        {
            "key": "field_59229bda38e8d",
            "label": "Visibility",
            "name": "global_header_use_hero",
            "type": "true_false",
            "instructions": "Hide header title from all pages?",
            "required": 0,
            "conditional_logic": 0,
            "wrapper": {
                "width": "",
                "class": "",
                "id": ""
            },
            "message": "",
            "default_value": 0,
            "ui": 1,
            "ui_on_text": "Yes",
            "ui_off_text": "No"
        },
        {
            "key": "field_59229bda3868f",
            "label": "Fullscreen height",
            "name": "global_header_height_fullscreen",
            "type": "true_false",
            "instructions": "Enable fullscreen height for header title?",
            "required": 0,
            "conditional_logic": 0,
            "wrapper": {
                "width": "",
                "class": "",
                "id": ""
            },
            "message": "",
            "default_value": 0,
            "ui": 1,
            "ui_on_text": "Yes",
            "ui_off_text": "No"
        },
        {
            "key": "field_59229bda38a78",
            "label": "Height",
            "name": "global_header_height",
            "type": "norebro_responsive_height",
            "instructions": "Set up header title height",
            "required": 0,
            "conditional_logic": [
                [
                    {
                        "field": "field_59229bda3868f",
                        "operator": "!=",
                        "value": "1"
                    }
                ]
            ],
            "wrapper": {
                "width": "",
                "class": "",
                "id": ""
            },
            "default_value": ""
        },
        {
            "key": "field_59229e431eaea",
            "label": "Content position",
            "name": "global_header_title_align",
            "type": "radio",
            "instructions": "Choose header title content position",
            "required": 0,
            "conditional_logic": 0,
            "wrapper": {
                "width": "",
                "class": "",
                "id": ""
            },
            "choices": {
                "left": "Left",
                "center": "Center",
                "right": "Right"
            },
            "allow_null": 0,
            "other_choice": 0,
            "save_other_choice": 0,
            "default_value": "center",
            "layout": "horizontal",
            "return_format": "value"
        },
        {
            "key": "field_5922a0ea1eaeb",
            "label": "Background type",
            "name": "global_header_title_background_type",
            "type": "radio",
            "instructions": "Choose background type for header title",
            "required": 0,
            "conditional_logic": 0,
            "wrapper": {
                "width": "",
                "class": "",
                "id": ""
            },
            "choices": {
                "image": "Custom image",
                "color": "Background color"
            },
            "allow_null": 0,
            "other_choice": 0,
            "save_other_choice": 0,
            "default_value": "",
            "layout": "horizontal",
            "return_format": "value"
        },
        {
            "key": "field_59229bda37ea5",
            "label": "Background color",
            "name": "global_header_background_color",
            "type": "norebro_color",
            "instructions": "Choose background color",
            "required": 0,
            "conditional_logic": 0,
            "wrapper": {
                "width": "",
                "class": "",
                "id": ""
            },
            "default_value": ""
        },
        {
            "key": "field_5922a2fd080e8",
            "label": "Background image",
            "name": "global_header_title_background_image",
            "type": "image",
            "instructions": "Upload background image for header title",
            "required": 0,
            "conditional_logic": [
                [
                    {
                        "field": "field_5922a0ea1eaeb",
                        "operator": "==",
                        "value": "image"
                    }
                ]
            ],
            "wrapper": {
                "width": "",
                "class": "",
                "id": ""
            },
            "return_format": "url",
            "preview_size": "medium",
            "library": "all",
            "min_width": "",
            "min_height": "",
            "min_size": "",
            "max_width": "",
            "max_height": "",
            "max_size": "",
            "mime_types": ""
        },
        {
            "key": "field_5922a6390c4a9",
            "label": "Background image size",
            "name": "global_header_title_background_size",
            "type": "select",
            "instructions": "Choose background image size type",
            "required": 0,
            "conditional_logic": [
                [
                    {
                        "field": "field_5922a0ea1eaeb",
                        "operator": "==",
                        "value": "image"
                    }
                ]
            ],
            "wrapper": {
                "width": "",
                "class": "",
                "id": ""
            },
            "choices": {
                "auto": "Auto",
                "cover": "Cover",
                "contain": "Contain",
                "100per": "100% 100%"
            },
            "default_value": [
                "auto"
            ],
            "allow_null": 0,
            "multiple": 0,
            "ui": 0,
            "ajax": 0,
            "return_format": "value",
            "placeholder": ""
        },
        {
            "key": "field_5922a7500579b",
            "label": "Background image position",
            "name": "global_header_title_background_position",
            "type": "select",
            "instructions": "Choose background image position",
            "required": 0,
            "conditional_logic": [
                [
                    {
                        "field": "field_5922a0ea1eaeb",
                        "operator": "==",
                        "value": "image"
                    },
                    {
                        "field": "field_5922a6390c4a9",
                        "operator": "==",
                        "value": "auto"
                    }
                ],
                [
                    {
                        "field": "field_5922a0ea1eaeb",
                        "operator": "==",
                        "value": "image"
                    },
                    {
                        "field": "field_5922a6390c4a9",
                        "operator": "==",
                        "value": "contain"
                    }
                ]
            ],
            "wrapper": {
                "width": "",
                "class": "",
                "id": ""
            },
            "choices": {
                "center": "Center",
                "left_top": "Left top",
                "left_center": "Left center",
                "left_bottom": "Left bottom",
                "center_top": "Center top",
                "center_bottom": "Center bottom",
                "right_top": "Right top",
                "right_center": "Right center",
                "right_bottom": "Right bottom"
            },
            "default_value": [
                "center"
            ],
            "allow_null": 0,
            "multiple": 0,
            "ui": 0,
            "ajax": 0,
            "return_format": "value",
            "placeholder": ""
        },
        {
            "key": "field_5922ab31f19b0",
            "label": "Background image repeat",
            "name": "global_header_title_background_repeat",
            "type": "select",
            "instructions": "Choose background image repeat type",
            "required": 0,
            "conditional_logic": [
                [
                    {
                        "field": "field_5922a0ea1eaeb",
                        "operator": "==",
                        "value": "image"
                    },
                    {
                        "field": "field_5922a6390c4a9",
                        "operator": "==",
                        "value": "auto"
                    }
                ],
                [
                    {
                        "field": "field_5922a0ea1eaeb",
                        "operator": "==",
                        "value": "image"
                    },
                    {
                        "field": "field_5922a6390c4a9",
                        "operator": "==",
                        "value": "contain"
                    }
                ]
            ],
            "wrapper": {
                "width": "",
                "class": "",
                "id": ""
            },
            "choices": {
                "repeat": "Repeat",
                "no_repeat": "No repeat",
                "repeat_y": "Repeat only by Y",
                "repeat_x": "Repeat only by X"
            },
            "default_value": [

            ],
            "allow_null": 0,
            "multiple": 0,
            "ui": 0,
            "ajax": 0,
            "return_format": "value",
            "placeholder": ""
        },
        {
            "key": "field_59229bda376e8",
            "label": "Background overlay",
            "name": "global_header_use_overlay",
            "type": "true_false",
            "instructions": "Add colored overlay over background image?",
            "required": 0,
            "conditional_logic": 0,
            "wrapper": {
                "width": "",
                "class": "",
                "id": ""
            },
            "message": "",
            "default_value": 1,
            "ui": 1,
            "ui_on_text": "Yes",
            "ui_off_text": "No"
        },
        {
            "key": "field_59229bda37acf",
            "label": "Background overlay color",
            "name": "global_header_overlay_color",
            "type": "norebro_color",
            "instructions": "Choose background overlay color",
            "required": 0,
            "conditional_logic": [
                [
                    {
                        "field": "field_59229bda376e8",
                        "operator": "==",
                        "value": "1"
                    }
                ]
            ],
            "wrapper": {
                "width": "",
                "class": "",
                "id": ""
            },
            "default_value": ""
        },
        {
            "key": "field_59229bda3827b",
            "label": "Title settings",
            "name": "global_header_tilte_typo",
            "type": "norebro_typo",
            "instructions": "Set up typograhy for hero titles",
            "required": 0,
            "conditional_logic": 0,
            "wrapper": {
                "width": "",
                "class": "",
                "id": ""
            },
            "add_theme_inherited": true
        },
        {
            "key": "field_59229d1dd0a61",
            "label": "Subtitle settings",
            "name": "global_header_subtilte_typo",
            "type": "norebro_typo",
            "instructions": "Set up typograhy for subtitles",
            "required": 0,
            "conditional_logic": 0,
            "wrapper": {
                "width": "",
                "class": "",
                "id": ""
            },
            "add_theme_inherited": true
        },

        {
            "key": "field_5941bd413bf",
            "label": "Other Settings",
            "name": "",
            "type": "tab",
            "instructions": "",
            "required": 0,
            "conditional_logic": 0,
            "wrapper": {
                "width": "",
                "class": "",
                "id": ""
            },
            "placement": "top",
            "endpoint": 0
        },
        {
            "key": "field_59229bda3432amods",
            "label": "Onepage scroll menu",
            "name": "global_header_onepage_mode",
            "type": "true_false",
            "instructions": "Enable onepage scroll menu? Handle anchor links as section scroll trigger. Read more in <a target=\"_blank\" href=\"https://docs.colabr.io/norebro/knowledge-base/smooth-scroll-menu/\">docs</a>.",
            "required": 0,
            "conditional_logic": 0,
            "wrapper": {
                "width": "",
                "class": "",
                "id": ""
            },
            "message": "",
            "default_value": 0,
            "ui": 1,
            "ui_on_text": "Yes",
            "ui_off_text": "No"
        },
        {
            "key": "field_59229bda366f4mod",
            "label": "Social links",
            "name": "global_header_menu_social_links",
            "type": "repeater",
            "instructions": "Add links to your social network groups (max. 6)",
            "required": 0,
            "conditional_logic": 0,
            "wrapper": {
                "width": "",
                "class": "",
                "id": ""
            },
            "collapsed": "",
            "min": 0,
            "max": 6,
            "layout": "table",
            "button_label": "+ Add social network",
            "sub_fields": [
                {
                    "key": "field_59229bda7b686moddd",
                    "label": "Direction",
                    "name": "social_network",
                    "type": "select",
                    "instructions": "",
                    "required": 0,
                    "conditional_logic": 0,
                    "wrapper": {
                        "width": "",
                        "class": "",
                        "id": ""
                    },
                    "choices": {
                        "facebook": "Facebook",
                        "twitter": "Twitter",
                        "googleplus": "Google Plus",
                        "instagram": "Instagram",
                        "dribbble": "Dribbble",
                        "pinterest": "Pinterest",
                        "github": "GitHub",
                        "linkedin": "LinkedIn",
                        "vimeo": "Vimeo",
                        "youtube": "YouTube",
                        "vk": "Vkontakte",
                        "behance": "Behance",
                        "tumblr": "Tumblr",
                        "flickr": "Flickr",
                        "reddit": "Reddit",
                        "snapchat": "Snapchat",
                        "whatsapp": "WhatsApp",
                        "quora": "Quora",
                        "vine": "Vine",
                        "digg": "Digg",
                        "foursqure": "Foursquare",
                        "soundcloud": "Soundcloud"
                    },
                    "default_value": [

                    ],
                    "allow_null": 0,
                    "multiple": 0,
                    "ui": 0,
                    "ajax": 0,
                    "return_format": "value",
                    "placeholder": ""
                },
                {
                    "key": "field_59229bda7ba5ajhghjhg",
                    "label": "URL",
                    "name": "url",
                    "type": "url",
                    "instructions": "",
                    "required": 0,
                    "conditional_logic": 0,
                    "wrapper": {
                        "width": "",
                        "class": "",
                        "id": ""
                    },
                    "default_value": "",
                    "placeholder": ""
                },
                {
                    "key": "field_59229bda343232146",
                    "label": "In new tab",
                    "name": "in_new_tab",
                    "type": "true_false",
                    "instructions": "",
                    "required": 0,
                    "conditional_logic": 0,
                    "wrapper": {
                        "width": "10%",
                        "class": "",
                        "id": ""
                    },
                    "message": "",
                    "default_value": 0,
                    "ui": 1,
                    "ui_on_text": "Yes",
                    "ui_off_text": "No"
                }
            ]
        },
        {
            "key": "field_592d43df9e26c",
            "label": "Search",
            "name": "global_header_hide_search",
            "type": "true_false",
            "instructions": "Hide search feature from header?",
            "required": 0,
            "conditional_logic": 0,
            "wrapper": {
                "width": "",
                "class": "",
                "id": ""
            },
            "message": "",
            "default_value": 0,
            "ui": 1,
            "ui_on_text": "",
            "ui_off_text": ""
        }
    ],
    "location": [
        [
            {
                "param": "options_page",
                "operator": "==",
                "value": "theme-general-header"
            }
        ]
    ],
    "menu_order": 1,
    "position": "normal",
    "style": "default",
    "label_placement": "left",
    "instruction_placement": "label",
    "hide_on_screen": "",
    "active": 1,
    "description": ""
}
