{
    "key": "group_593be7a6c2017",
    "title": "Shop Settings",
    "private": true,
    "fields": [
        {
            "key": "field_591b4f20ed84e",
            "label": "Shop Layout",
            "name": "",
            "type": "tab",
            "instructions": "",
            "required": 0,
            "conditional_logic": 0,
            "wrapper": {
                "width": "",
                "class": "",
                "id": ""
            },
            "placement": "top",
            "endpoint": 0
        },
        {
            "key": "field_5937e0a51b48cexmod155",
            "label": "",
            "name": "",
            "type": "message",
            "instructions": "",
            "required": 0,
            "conditional_logic": 0,
            "wrapper": {
                "width": "",
                "class": "",
                "id": ""
            },
            "message": "<p class=\"message\"><span class=\"icon ion-information-circled\"></span> <b>Note:</b> these settings apply to all shop elements of your website. You can override some global setting for individual shop pages.</p>",
            "new_lines": "",
            "esc_html": 0
        },
        {
            "key": "field_58383c7ed01ae_laytype",
            "label": "Grid layout",
            "name": "global_woocommerce_shop_layout",
            "type": "select",
            "instructions": "Choose grid layout type",
            "required": 0,
            "conditional_logic": 0,
            "wrapper": {
                "width": "",
                "class": "",
                "id": ""
            },
            "choices": {
                "default": "Classic",
                "masonry": "Masonry"
            },
            "default_value": [
                "default"
            ],
            "allow_null": 0,
            "multiple": 0,
            "ui": 0,
            "ajax": 0,
            "return_format": "value",
            "placeholder": ""
        },
        {
            "key": "field_58383c7ed01ae_shop_count",
            "label": "Product items per page",
            "name": "global_woocommerce_products_on_page",
            "type":"text",
            "instructions": "Choose the number of product items per page",
            "required": 0,
            "append":"products",
            "conditional_logic": 0,
            "wrapper": {
                "width": "",
                "class": "",
                "id": ""
            },
            "allow_null": 0,
            "multiple": 0,
            "ui": 0,
            "ajax": 0,
            "maxlength": "2",
            "placeholder": ""
        },
        {
            "key": "field_58383c7ed02ae",
            "label": "Product items per row",
            "name": "global_woocommerce_products_in_row",
            "type":"norebro_ecommerce_columns",
            "instructions": "Choose the number of product items per row",
            "default_value": {
                "large": "3",
                "medium": "2",
                "small": "1"
            }
        },
        {
            "key": "field_593beasdf34251893",
            "label": "Product grid gallery auto scroll",
            "name": "global_woocommerce_products_autoplay",
            "type": "true_false",
            "instructions": "Enable grid gallery auto scroll",
            "required": 0,
            "conditional_logic": 0,
            "wrapper": {
                "width": "",
                "class": "",
                "id": ""
            },
            "message": "",
            "default_value": 1,
            "ui": 1,
            "ui_on_text": "Yes",
            "ui_off_text": "No"
        },
        {
            "key": "field_59374323b383615",
            "label": "Pagination",
            "name": "global_woocommerce_pagination_type",
            "type": "select",
            "instructions": "Choose pagination type for shop page",
            "required": 0,
            "conditional_logic": 0,
            "wrapper": {
                "width": "",
                "class": "",
                "id": ""
            },
            "choices": {
                "simple": "Simple",
                "lazy_scroll": "Lazy load",
                "lazy_button": "Load more button"
            },
            "default_value": [
                "simple"
            ],
            "allow_null": 0,
            "multiple": 0,
            "ui": 0,
            "ajax": 0,
            "return_format": "value",
            "placeholder": ""
        },
        {
            "key": "field_593743237383615",
            "label": "Pagination position",
            "name": "global_woocommerce_pagination_position",
            "type": "select",
            "instructions": "Choose pagination position for shop page",
            "required": 0,
            "conditional_logic": 0,
            "wrapper": {
                "width": "",
                "class": "",
                "id": ""
            },
            "choices": {
                "left": "Left",
                "center": "Center",
                "right": "Right"
            },
            "default_value": [
                "left"
            ],
            "allow_null": 0,
            "multiple": 0,
            "ui": 0,
            "ajax": 0,
            "return_format": "value",
            "placeholder": ""
        },
        {
            "key": "field_593be7a6d2429",
            "label": "Shop Page",
            "name": "",
            "type": "tab",
            "instructions": "",
            "required": 0,
            "conditional_logic": 0,
            "wrapper": {
                "width": "",
                "class": "",
                "id": ""
            },
            "placement": "top",
            "endpoint": 0
        },
        {
            "key": "field_593be7a6d437b",
            "label": "Breadcrumbs visibility",
            "name": "global_woocommerce_page_show_breadcrumbs",
            "type": "radio",
            "instructions": "Show breadcrumbs section on shop pages?",
            "required": 0,
            "conditional_logic": 0,
            "wrapper": {
                "width": "",
                "class": "",
                "id": ""
            },
            "choices": {
                "inherit": "Theme settings inherited",
                "yes": "Show",
                "no": "Hide"
            },
            "allow_null": 0,
            "other_choice": 0,
            "save_other_choice": 0,
            "default_value": "inherit",
            "layout": "horizontal",
            "return_format": "value"
        },
        {
            "key": "field_59fb433sbgd33615",
            "label": "Breadcrumbs slug",
            "name": "global_woocommerce_breadcrumbs_slug",
            "type": "text",
            "instructions": "Enter custom text for breadcrumbs slug",
            "required": 0,
            "conditional_logic": 0,
            "wrapper": {
                "width": "",
                "class": "",
                "id": ""
            },
            "new_lines": "",
            "esc_html": 0
        },
        {
            "key": "field_593be7a6d4778",
            "label": "Content wrapper",
            "name": "global_woocommerce_page_is_wrapped",
            "type": "radio",
            "instructions": "Add page content wrapper to shop pages?",
            "required": 0,
            "conditional_logic": [
                [
                    {
                        "field": "field_593edd79aa843",
                        "operator": "!=",
                        "value": "yes"
                    }
                ]
            ],
            "wrapper": {
                "width": "",
                "class": "",
                "id": ""
            },
            "choices": {
                "inherit": "Theme settings inherited",
                "yes": "With wrapper",
                "no": "Without wrapper"
            },
            "allow_null": 0,
            "other_choice": 0,
            "save_other_choice": 0,
            "default_value": "inherit",
            "layout": "horizontal",
            "return_format": "value"
        },
        {
            "key": "field_593edd79aa843",
            "label": "Boxed page layout",
            "name": "global_woocommerce_use_boxed_wrapper",
            "type": "radio",
            "instructions": "Wrap Shop pages in boxed container",
            "required": 0,
            "conditional_logic": 0,
            "wrapper": {
                "width": "",
                "class": "",
                "id": ""
            },
            "choices": {
                "inherit": "Theme page settings inherited",
                "yes": "Yes",
                "no": "No"
            },
            "allow_null": 0,
            "other_choice": 0,
            "save_other_choice": 0,
            "default_value": "inherit",
            "layout": "horizontal",
            "return_format": "value"
        },
        {
            "key": "field_593be7a6d2871",
            "label": "Background type",
            "name": "global_woocommerce_page_background_type",
            "type": "radio",
            "instructions": "Choose background type for shop pages",
            "required": 0,
            "conditional_logic": 0,
            "wrapper": {
                "width": "",
                "class": "",
                "id": ""
            },
            "choices": {
                "inherit": "Theme settings inherited",
                "custom": "Custom image",
                "color": "Custom color"
            },
            "allow_null": 0,
            "other_choice": 0,
            "save_other_choice": 0,
            "default_value": "",
            "layout": "horizontal",
            "return_format": "value"
        },
        {
            "key": "field_593be7a6d2bfc",
            "label": "Background image",
            "name": "global_woocommerce_page_background_image",
            "type": "image",
            "instructions": "Custom background image",
            "required": 0,
            "conditional_logic": [
                [
                    {
                        "field": "field_593be7a6d2871",
                        "operator": "==",
                        "value": "custom"
                    }
                ]
            ],
            "wrapper": {
                "width": "",
                "class": "",
                "id": ""
            },
            "return_format": "url",
            "preview_size": "thumbnail",
            "library": "all",
            "min_width": "",
            "min_height": "",
            "min_size": "",
            "max_width": "",
            "max_height": "",
            "max_size": "",
            "mime_types": ""
        },
        {
            "key": "field_593be7a6d2fe1",
            "label": "Background size",
            "name": "global_woocommerce_page_background_size",
            "type": "select",
            "instructions": "Choose background image size type",
            "required": 0,
            "conditional_logic": [
                [
                    {
                        "field": "field_593be7a6d2871",
                        "operator": "==",
                        "value": "custom"
                    }
                ]
            ],
            "wrapper": {
                "width": "",
                "class": "",
                "id": ""
            },
            "choices": {
                "auto": "Auto",
                "cover": "Cover",
                "contain": "Contain",
                "100per": "100% 100%"
            },
            "default_value": [
                "auto"
            ],
            "allow_null": 0,
            "multiple": 0,
            "ui": 0,
            "ajax": 0,
            "return_format": "value",
            "placeholder": ""
        },
        {
            "key": "field_593be7a6d33d2",
            "label": "Background position",
            "name": "global_woocommerce_page_background_position",
            "type": "select",
            "instructions": "Choose background image position",
            "required": 0,
            "conditional_logic": [
                [
                    {
                        "field": "field_593be7a6d2fe1",
                        "operator": "==",
                        "value": "auto"
                    },
                    {
                        "field": "field_593be7a6d2871",
                        "operator": "==",
                        "value": "custom"
                    }
                ],
                [
                    {
                        "field": "field_593be7a6d2fe1",
                        "operator": "==",
                        "value": "contain"
                    },
                    {
                        "field": "field_593be7a6d2871",
                        "operator": "==",
                        "value": "custom"
                    }
                ]
            ],
            "wrapper": {
                "width": "",
                "class": "",
                "id": ""
            },
            "choices": {
                "center": "Center",
                "left_top": "Left top",
                "left_center": "Left center",
                "left_bottom": "Left bottom",
                "center_top": "Center top",
                "center_bottom": "Center bottom",
                "right_top": "Right top",
                "right_center": "Right center",
                "right_bottom": "Right bottom"
            },
            "default_value": [

            ],
            "allow_null": 0,
            "multiple": 0,
            "ui": 0,
            "ajax": 0,
            "return_format": "value",
            "placeholder": ""
        },
        {
            "key": "field_593be7a6d37bb",
            "label": "Background repeat",
            "name": "global_woocommerce_page_background_repeat",
            "type": "select",
            "instructions": "Choose repeat type for background image",
            "required": 0,
            "conditional_logic": [
                [
                    {
                        "field": "field_593be7a6d2fe1",
                        "operator": "==",
                        "value": "auto"
                    },
                    {
                        "field": "field_593be7a6d2871",
                        "operator": "==",
                        "value": "custom"
                    }
                ],
                [
                    {
                        "field": "field_593be7a6d2fe1",
                        "operator": "==",
                        "value": "contain"
                    },
                    {
                        "field": "field_593be7a6d2871",
                        "operator": "==",
                        "value": "custom"
                    }
                ]
            ],
            "wrapper": {
                "width": "",
                "class": "",
                "id": ""
            },
            "choices": {
                "repeat": "Repeat",
                "no_repeat": "No repeat",
                "repeat_y": "Repeat only by Y",
                "repeat_x": "Repeat only by X"
            },
            "default_value": [

            ],
            "allow_null": 0,
            "multiple": 0,
            "ui": 0,
            "ajax": 0,
            "return_format": "value",
            "placeholder": ""
        },
        {
            "key": "field_593be7a6d3b96",
            "label": "Background attachment",
            "name": "global_woocommerce_page_background_is_attached",
            "type": "true_false",
            "instructions": "Fix background image for shop pages",
            "required": 0,
            "conditional_logic": [
                [
                    {
                        "field": "field_593be7a6d2871",
                        "operator": "==",
                        "value": "custom"
                    }
                ]
            ],
            "wrapper": {
                "width": "",
                "class": "",
                "id": ""
            },
            "message": "",
            "default_value": 0,
            "ui": 1,
            "ui_on_text": "",
            "ui_off_text": ""
        },
        {
            "key": "field_593be7a6d3f97",
            "label": "Background color",
            "name": "global_woocommerce_page_background_color",
            "type": "norebro_color",
            "instructions": "Choose background color for shop pages",
            "required": 0,
            "conditional_logic": 0,
            "wrapper": {
                "width": "",
                "class": "",
                "id": ""
            },
            "default_value": ""
        },
        {
            "key": "field_593743s37383615",
            "label": "Sidebar",
            "name": "global_woocommerce_sidebar",
            "type": "select",
            "instructions": "Choose sidebar position for shop pages",
            "required": 0,
            "conditional_logic": 0,
            "wrapper": {
                "width": "",
                "class": "",
                "id": ""
            },
            "choices": {
                "without": "Without sidebar",
                "right": "Right",
                "left": "Left"
            },
            "default_value": [
                "without"
            ],
            "allow_null": 0,
            "multiple": 0,
            "ui": 0,
            "ajax": 0,
            "return_format": "value",
            "placeholder": ""
        },
        {
            "key": "field_593be7a6cb6d8",
            "label": "Header",
            "name": "",
            "type": "tab",
            "instructions": "",
            "required": 0,
            "conditional_logic": 0,
            "wrapper": {
                "width": "",
                "class": "",
                "id": ""
            },
            "placement": "top",
            "endpoint": 0
        },
        {
            "key": "field_593be7a6cbac1",
            "label": "Header layout",
            "name": "global_woocommerce_header_menu_style",
            "type": "image_option",
            "instructions": "Choose header template",
            "required": 0,
            "conditional_logic": 0,
            "wrapper": {
                "width": "",
                "class": "",
                "id": ""
            },
            "image_option_value": [
                {
                    "name": "inherit",
                    "description": "Theme settings inherited",
                    "src": "nor__listing_inherited.svg"
                },
                {
                    "name": "style1",
                    "description": "Transparent",
                    "src": "nor__listing_01.svg"
                },
                {
                    "name": "style2",
                    "description": "Filled Background",
                    "src": "nor__listing_02.svg"
                },
                {
                    "name": "style3",
                    "description": "Wrapped",
                    "src": "nor__listing_03.svg"
                },
                {
                    "name": "style4",
                    "description": "Centered Logo",
                    "src": "nor__listing_05.svg"
                },
                {
                    "name": "style5",
                    "description": "Top Logo",
                    "src": "nor__listing_04.svg"
                },
                {
                    "name": "style6",
                    "description": "Sidebar",
                    "src": "nor__listing_06.svg"
                }
            ],
            "default_value": "inherit"
        },
        {
            "key": "field_59412ba9ad9b7",
            "label": "Blank spacer under header",
            "name": "global_woocommerce_header_add_cap",
            "type": "radio",
            "instructions": "We recommend use this setting for transparent and fixed header navigation",
            "required": 0,
            "conditional_logic": 0,
            "wrapper": {
                "width": "",
                "class": "",
                "id": ""
            },
            "choices": {
                "inherit": "Theme settings inherited",
                "yes": "Add spacer",
                "no": "Don't add"
            },
            "allow_null": 0,
            "other_choice": 0,
            "save_other_choice": 0,
            "default_value": "",
            "layout": "horizontal",
            "return_format": "value"
        },
        {
            "key": "field_593be7a6cbea5",
            "label": "Content wrapper",
            "name": "global_woocommerce_header_menu_use_wrapper",
            "type": "radio",
            "instructions": "Use header content wrapper",
            "required": 0,
            "conditional_logic": 0,
            "wrapper": {
                "width": "",
                "class": "",
                "id": ""
            },
            "choices": {
                "inherit": "Theme settings inherited",
                "yes": "Yes",
                "no": "No"
            },
            "allow_null": 0,
            "other_choice": 0,
            "save_other_choice": 0,
            "default_value": "",
            "layout": "horizontal",
            "return_format": "value"
        },
        {
            "key": "field_59412c4ddd0b7",
            "label": "Header styles",
            "name": "global_woocommerce_header_menu_style_settings",
            "type": "radio",
            "instructions": "Define header custom styles",
            "required": 0,
            "conditional_logic": 0,
            "wrapper": {
                "width": "",
                "class": "",
                "id": ""
            },
            "choices": {
                "inherit": "Theme settings inherited",
                "custom": "Custom style"
            },
            "allow_null": 0,
            "other_choice": 0,
            "save_other_choice": 0,
            "default_value": "",
            "layout": "horizontal",
            "return_format": "value"
        },
        {
            "key": "field_59413906d625b",
            "label": "Height",
            "name": "global_woocommerce_header_menu_height",
            "type": "norebro_responsive_height",
            "instructions": "Set up header height",
            "required": 0,
            "conditional_logic": [
                [
                    {
                        "field": "field_59412c4ddd0b7",
                        "operator": "==",
                        "value": "custom"
                    }
                ]
            ],
            "wrapper": {
                "width": "",
                "class": "",
                "id": ""
            },
            "default_value": ""
        },
        {
            "key": "field_593be7a6cca51",
            "label": "Background color",
            "name": "global_woocommerce_header_menu_background_color",
            "type": "norebro_color",
            "instructions": "Background color",
            "required": 0,
            "conditional_logic": [
                [
                    {
                        "field": "field_59412c4ddd0b7",
                        "operator": "==",
                        "value": "custom"
                    }
                ]
            ],
            "wrapper": {
                "width": "",
                "class": "",
                "id": ""
            },
            "default_value": ""
        },
        {
            "key": "field_593be7a6cce2c",
            "label": "Typography",
            "name": "global_woocommerce_header_menu_text_typo",
            "type": "norebro_typo",
            "instructions": "Content text color",
            "required": 0,
            "conditional_logic": [
                [
                    {
                        "field": "field_59412c4ddd0b7",
                        "operator": "==",
                        "value": "custom"
                    }
                ]
            ],
            "wrapper": {
                "width": "",
                "class": "",
                "id": ""
            },
            "add_theme_inherited": true
        },
        {
            "key": "field_593be7a6cd5f7",
            "label": "Bottom border",
            "name": "global_woocommerce_header_menu_hide_border",
            "type": "true_false",
            "instructions": "Hide bottom border from header?",
            "required": 0,
            "conditional_logic": [
                [
                    {
                        "field": "field_59412c4ddd0b7",
                        "operator": "==",
                        "value": "custom"
                    }
                ]
            ],
            "wrapper": {
                "width": "",
                "class": "",
                "id": ""
            },
            "message": "",
            "default_value": 0,
            "ui": 1,
            "ui_on_text": "",
            "ui_off_text": ""
        },
        {
            "key": "field_593be7a6cddf0",
            "label": "Bottom border type",
            "name": "global_woocommerce_header_menu_border_type",
            "type": "select",
            "instructions": "Choose border stroke type",
            "required": 0,
            "conditional_logic": [
                [
                    {
                        "field": "field_59412c4ddd0b7",
                        "operator": "==",
                        "value": "custom"
                    },
                    {
                        "field": "field_593be7a6cd5f7",
                        "operator": "!=",
                        "value": "1"
                    }
                ]
            ],
            "wrapper": {
                "width": "",
                "class": "",
                "id": ""
            },
            "choices": {
                "solid": "Solid",
                "dashed": "Dashed",
                "dotted": "Dotted",
                "double": "Double"
            },
            "default_value": [
                "inherit"
            ],
            "allow_null": 0,
            "multiple": 0,
            "ui": 0,
            "ajax": 0,
            "return_format": "value",
            "placeholder": ""
        },
        {
            "key": "field_593be7a6cda06",
            "label": "Bottom border color",
            "name": "global_woocommerce_header_menu_border_color",
            "type": "norebro_color",
            "instructions": "Choose bottom border color",
            "required": 0,
            "conditional_logic": [
                [
                    {
                        "field": "field_59412c4ddd0b7",
                        "operator": "==",
                        "value": "custom"
                    },
                    {
                        "field": "field_593be7a6cd5f7",
                        "operator": "!=",
                        "value": "1"
                    }
                ]
            ],
            "wrapper": {
                "width": "",
                "class": "",
                "id": ""
            },
            "default_value": ""
        },
        {
            "key": "field_5937a0a52148cexmod23",
            "label": "",
            "name": "",
            "type": "message",
            "instructions": "",
            "required": 0,
            "conditional_logic": 0,
            "wrapper": {
                "width": "",
                "class": "",
                "id": ""
            },
            "message": "<h9>Sticky Header</h9>",
            "new_lines": "",
            "esc_html": 0
        },
        {
            "key": "field_593be7a6ced67",
            "label": "Sticky header",
            "name": "global_woocommerce_header_menu_fixed",
            "type": "radio",
            "instructions": "Enable sticky header, when you scrolling the page",
            "required": 0,
            "conditional_logic": 0,
            "wrapper": {
                "width": "",
                "class": "",
                "id": ""
            },
            "choices": {
                "inherit": "Theme settings inherited",
                "yes": "Yes",
                "no": "No"
            },
            "allow_null": 0,
            "other_choice": 0,
            "save_other_choice": 0,
            "default_value": "inherit",
            "layout": "horizontal",
            "return_format": "value"
        },
        {
            "key": "field_5937e0a52148cexmod23",
            "label": "",
            "name": "",
            "type": "message",
            "instructions": "",
            "required": 0,
            "conditional_logic": 0,
            "wrapper": {
                "width": "",
                "class": "",
                "id": ""
            },
            "message": "<h9>Logo Settings</h9>",
            "new_lines": "",
            "esc_html": 0
        },
        {
            "key": "field_59412a19f4b88",
            "label": "Brand logo",
            "name": "global_woocommerce_header_logo_style",
            "type": "select",
            "instructions": "Select header logo style",
            "required": 0,
            "conditional_logic": 0,
            "wrapper": {
                "width": "",
                "class": "",
                "id": ""
            },
            "choices": {
                "inherit": "Theme settings inherited",
                "dark_variant": "Dark variant",
                "light_variant": "Light variant",
                "sitename": "Text logo",
                "custom": "Custom image"
            },
            "default_value": [
                "inherit"
            ],
            "allow_null": 0,
            "multiple": 0,
            "ui": 0,
            "ajax": 0,
            "return_format": "value",
            "placeholder": ""
        },
        {
            "key": "field_59412ac638d56",
            "label": "Text logo settings",
            "name": "global_woocommerce_header_sitename_typo",
            "type": "norebro_typo",
            "instructions": "Custom typography settings",
            "required": 0,
            "conditional_logic": [
                [
                    {
                        "field": "field_59412a19f4b88",
                        "operator": "==",
                        "value": "sitename"
                    }
                ]
            ],
            "wrapper": {
                "width": "",
                "class": "",
                "id": ""
            },
            "add_theme_inherited": true
        },
        {
            "key": "field_59412af638d57",
            "label": "Custom logo",
            "name": "global_woocommerce_header_custom_logo",
            "type": "image",
            "instructions": "Custom loaded image",
            "required": 0,
            "conditional_logic": [
                [
                    {
                        "field": "field_59412a19f4b88",
                        "operator": "==",
                        "value": "custom"
                    }
                ]
            ],
            "wrapper": {
                "width": "",
                "class": "",
                "id": ""
            },
            "return_format": "url",
            "preview_size": "thumbnail",
            "library": "all",
            "min_width": "",
            "min_height": "",
            "min_size": "",
            "max_width": "",
            "max_height": "",
            "max_size": "",
            "mime_types": ""
        },
        {
            "key": "field_593770a52148cexmod23",
            "label": "",
            "name": "",
            "type": "message",
            "instructions": "",
            "required": 0,
            "conditional_logic": 0,
            "wrapper": {
                "width": "",
                "class": "",
                "id": ""
            },
            "message": "<h9>Menu Settings</h9>",
            "new_lines": "",
            "esc_html": 0
        },
        {
            "key": "field_593be7a6cc66e",
            "label": "Menu type",
            "name": "global_woocommerce_menu_type",
            "type": "radio",
            "instructions": "Choose menu type for shop pages",
            "required": 0,
            "conditional_logic": 0,
            "wrapper": {
                "width": "",
                "class": "",
                "id": ""
            },
            "choices": {
                "inherit": "Theme settings inherited",
                "full": "Extended menu",
                "hamburger": "Hamburger menu"
            },
            "allow_null": 0,
            "other_choice": 0,
            "save_other_choice": 0,
            "default_value": "inherit",
            "layout": "horizontal",
            "return_format": "value"
        },
        {
            "key": "field_593770a5214bcexmod23",
            "label": "",
            "name": "",
            "type": "message",
            "instructions": "",
            "required": 0,
            "conditional_logic": 0,
            "wrapper": {
                "width": "",
                "class": "",
                "id": ""
            },
            "message": "<h9>Subheader Settings</h9>",
            "new_lines": "",
            "esc_html": 0
        },
        {
            "key": "field_593be7a6ce1ba",
            "label": "Visibility",
            "name": "global_woocommerce_header_menu_add_contacts_bar",
            "type": "radio",
            "instructions": "Show subheader bar on shop pages?",
            "required": 0,
            "conditional_logic": 0,
            "wrapper": {
                "width": "",
                "class": "",
                "id": ""
            },
            "choices": {
                "inherit": "Theme settings inherited",
                "yes": "Yes",
                "no": "No"
            },
            "allow_null": 0,
            "other_choice": 0,
            "save_other_choice": 0,
            "default_value": "inherit",
            "layout": "horizontal",
            "return_format": "value"
        },
        {
            "key": "field_594104c4f2c34",
            "label": "Subheader styles",
            "name": "global_woocommerce_header_menu_contacts_bar_style",
            "type": "radio",
            "instructions": "Choose subheader style for shop pages",
            "required": 0,
            "conditional_logic": 0,
            "wrapper": {
                "width": "",
                "class": "",
                "id": ""
            },
            "choices": {
                "inherit": "Theme settings inherited",
                "custom": "Custom style"
            },
            "allow_null": 0,
            "other_choice": 0,
            "save_other_choice": 0,
            "default_value": "",
            "layout": "horizontal",
            "return_format": "value"
        },
        {
            "key": "field_59410542f2c35",
            "label": "Height",
            "name": "global_woocommerce_header_menu_contacts_bar_height",
            "type": "norebro_responsive_height",
            "instructions": "Set up subheader height",
            "required": 0,
            "conditional_logic": [
                [
                    {
                        "field": "field_594104c4f2c34",
                        "operator": "==",
                        "value": "custom"
                    }
                ]
            ],
            "wrapper": {
                "width": "",
                "class": "",
                "id": ""
            },
            "default_value": ""
        },
        {
            "key": "field_593be7a6ce5b9",
            "label": "Background color",
            "name": "global_woocommerce_header_menu_contacts_bar_background",
            "type": "norebro_color",
            "instructions": "Choose background color for subheader",
            "required": 0,
            "conditional_logic": [
                [
                    {
                        "field": "field_594104c4f2c34",
                        "operator": "==",
                        "value": "custom"
                    }
                ]
            ],
            "wrapper": {
                "width": "",
                "class": "",
                "id": ""
            },
            "default_value": ""
        },
        {
            "key": "field_593be7a6ce975",
            "label": "Typography",
            "name": "global_woocommerce_header_menu_contacts_bar_text_typo",
            "type": "norebro_typo",
            "instructions": "Custom typography settings",
            "required": 0,
            "conditional_logic": [
                [
                    {
                        "field": "field_594104c4f2c34",
                        "operator": "==",
                        "value": "custom"
                    }
                ]
            ],
            "wrapper": {
                "width": "",
                "class": "",
                "id": ""
            },
            "add_theme_inherited": true
        },
        {
            "key": "field_593be7a6cf173",
            "label": "Header Title",
            "name": "",
            "type": "tab",
            "instructions": "",
            "required": 0,
            "conditional_logic": 0,
            "wrapper": {
                "width": "",
                "class": "",
                "id": ""
            },
            "placement": "top",
            "endpoint": 0
        },
        {
            "key": "field_593be7a6d2062",
            "label": "Visibility",
            "name": "global_woocommerce_header_use_hero",
            "type": "radio",
            "instructions": "Hide header title from shop pages?",
            "required": 0,
            "conditional_logic": 0,
            "wrapper": {
                "width": "",
                "class": "",
                "id": ""
            },
            "choices": {
                "inherit": "Theme page settings inherited",
                "yes": "Hide",
                "no": "Show"
            },
            "allow_null": 0,
            "other_choice": 0,
            "save_other_choice": 0,
            "default_value": "",
            "layout": "horizontal",
            "return_format": "value"
        },
        {
            "key": "field_593be7a6d1893",
            "label": "Fullscreen height",
            "name": "global_woocommerce_header_height_fullscreen",
            "type": "true_false",
            "instructions": "Enable fullscreen height for header title?",
            "required": 0,
            "conditional_logic": 0,
            "wrapper": {
                "width": "",
                "class": "",
                "id": ""
            },
            "message": "",
            "default_value": 0,
            "ui": 1,
            "ui_on_text": "Yes",
            "ui_off_text": "No"
        },
        {
            "key": "field_593be7a6d1c53",
            "label": "Height",
            "name": "global_woocommerce_header_height",
            "type": "norebro_responsive_height",
            "instructions": "Set up header title height",
            "required": 0,
            "conditional_logic": [
                [
                    {
                        "field": "field_593be7a6d1893",
                        "operator": "!=",
                        "value": "1"
                    }
                ]
            ],
            "wrapper": {
                "width": "",
                "class": "",
                "id": ""
            },
            "default_value": ""
        },
        {
            "key": "field_593be7a6cf58a",
            "label": "Subtitle text",
            "name": "global_woocommerce_header_subtitle",
            "type": "text",
            "instructions": "Custom subtitle text",
            "required": 0,
            "conditional_logic": 0,
            "wrapper": {
                "width": "",
                "class": "",
                "id": ""
            },
            "default_value": "",
            "placeholder": "",
            "prepend": "",
            "append": "",
            "formatting": "html",
            "maxlength": ""
        },
        {
            "key": "field_593d5de953e57",
            "label": "Content position",
            "name": "global_woocommerce_header_title_align",
            "type": "select",
            "instructions": "Choose header title content position",
            "required": 0,
            "conditional_logic": 0,
            "wrapper": {
                "width": "",
                "class": "",
                "id": ""
            },
            "choices": {
                "inherit": "Theme page settings inherited",
                "left": "Left",
                "center": "Center",
                "right": "Right"
            },
            "default_value": [
                "inherit"
            ],
            "allow_null": 0,
            "multiple": 0,
            "ui": 0,
            "ajax": 0,
            "return_format": "value",
            "placeholder": ""
        },
        {
            "key": "field_593be851ebe2f",
            "label": "Background type",
            "name": "global_woocommerce_header_title_background_type",
            "type": "select",
            "instructions": "Choose background type for header title",
            "required": 0,
            "conditional_logic": 0,
            "wrapper": {
                "width": "",
                "class": "",
                "id": ""
            },
            "choices": {
                "inherit": "Theme page settings inherited",
                "color": "Background color",
                "image": "Custom image"
            },
            "default_value": [

            ],
            "allow_null": 0,
            "multiple": 0,
            "ui": 0,
            "ajax": 0,
            "return_format": "value",
            "placeholder": ""
        },
        {
            "key": "field_593be7a6d10ac",
            "label": "Background color",
            "name": "global_woocommerce_header_background_color",
            "type": "norebro_color",
            "instructions": "Choose header background color",
            "required": 0,
            "conditional_logic": [
                [
                    {
                        "field": "field_593be851ebe2f",
                        "operator": "!=",
                        "value": "inherit"
                    }
                ]
            ],
            "wrapper": {
                "width": "",
                "class": "",
                "id": ""
            },
            "default_value": ""
        },
        {
            "key": "field_593be7a6cf964",
            "label": "Background image",
            "name": "global_woocommerce_header_background_image",
            "type": "image",
            "instructions": "Upload background image for header title",
            "required": 0,
            "conditional_logic": [
                [
                    {
                        "field": "field_593be851ebe2f",
                        "operator": "==",
                        "value": "image"
                    }
                ]
            ],
            "wrapper": {
                "width": "",
                "class": "",
                "id": ""
            },
            "return_format": "url",
            "preview_size": "thumbnail",
            "library": "all",
            "min_width": "",
            "min_height": "",
            "min_size": "",
            "max_width": "",
            "max_height": "",
            "max_size": "",
            "mime_types": ""
        },
        {
            "key": "field_593be7a6cfd29",
            "label": "Background size",
            "name": "global_woocommerce_header_background_size",
            "type": "select",
            "instructions": "Choose background image size type",
            "required": 0,
            "conditional_logic": [
                [
                    {
                        "field": "field_593be851ebe2f",
                        "operator": "==",
                        "value": "image"
                    }
                ]
            ],
            "wrapper": {
                "width": "",
                "class": "",
                "id": ""
            },
            "choices": {
                "auto": "Auto",
                "cover": "Cover",
                "contain": "Contain",
                "100per": "100% 100%"
            },
            "default_value": [
                "cover"
            ],
            "allow_null": 0,
            "multiple": 0,
            "ui": 0,
            "ajax": 0,
            "return_format": "value",
            "placeholder": ""
        },
        {
            "key": "field_593be7a6d014b",
            "label": "Background position",
            "name": "global_woocommerce_header_background_position",
            "type": "select",
            "instructions": "Choose background image position",
            "required": 0,
            "conditional_logic": [
                [
                    {
                        "field": "field_593be7a6cfd29",
                        "operator": "==",
                        "value": "auto"
                    },
                    {
                        "field": "field_593be851ebe2f",
                        "operator": "==",
                        "value": "image"
                    }
                ],
                [
                    {
                        "field": "field_593be7a6cfd29",
                        "operator": "==",
                        "value": "contain"
                    },
                    {
                        "field": "field_593be851ebe2f",
                        "operator": "==",
                        "value": "image"
                    }
                ]
            ],
            "wrapper": {
                "width": "",
                "class": "",
                "id": ""
            },
            "choices": {
                "center": "Center",
                "left_top": "Left top",
                "left_center": "Left center",
                "left_bottom": "Left bottom",
                "center_top": "Center top",
                "center_bottom": "Center bottom",
                "right_top": "Right top",
                "right_center": "Right center",
                "right_bottom": "Right bottom"
            },
            "default_value": [

            ],
            "allow_null": 0,
            "multiple": 0,
            "ui": 0,
            "ajax": 0,
            "return_format": "value",
            "placeholder": ""
        },
        {
            "key": "field_593be7a6d0501",
            "label": "Background repeat",
            "name": "global_woocommerce_header_background_repeat",
            "type": "select",
            "instructions": "Repeat type of background image",
            "required": 0,
            "conditional_logic": [
                [
                    {
                        "field": "field_593be7a6cfd29",
                        "operator": "==",
                        "value": "auto"
                    },
                    {
                        "field": "field_593be851ebe2f",
                        "operator": "==",
                        "value": "image"
                    }
                ],
                [
                    {
                        "field": "field_593be7a6cfd29",
                        "operator": "==",
                        "value": "contain"
                    },
                    {
                        "field": "field_593be851ebe2f",
                        "operator": "==",
                        "value": "image"
                    }
                ]
            ],
            "wrapper": {
                "width": "",
                "class": "",
                "id": ""
            },
            "choices": {
                "repeat": "Repeat",
                "no_repeat": "No repeat",
                "repeat_y": "Repeat only by Y",
                "repeat_x": "Repeat only by X"
            },
            "default_value": [

            ],
            "allow_null": 0,
            "multiple": 0,
            "ui": 0,
            "ajax": 0,
            "return_format": "value",
            "placeholder": ""
        },
        {
            "key": "field_593be7a6d08c2",
            "label": "Background overlay",
            "name": "global_woocommerce_header_use_overlay",
            "type": "radio",
            "instructions": "Add colored overlay over background image?",
            "required": 0,
            "conditional_logic": 0,
            "wrapper": {
                "width": "",
                "class": "",
                "id": ""
            },
            "choices": {
                "inherit": "Theme settings inherited",
                "yes": "Yes",
                "no": "No"
            },
            "allow_null": 0,
            "other_choice": 0,
            "save_other_choice": 0,
            "default_value": "inherit",
            "layout": "horizontal",
            "return_format": "value"
        },
        {
            "key": "field_593be7a6d0cb4",
            "label": "Background overlay color",
            "name": "global_woocommerce_header_overlay_color",
            "type": "norebro_color",
            "instructions": "Choose background overlay color",
            "required": 0,
            "conditional_logic": [
                [
                    {
                        "field": "field_593be7a6d08c2",
                        "operator": "!=",
                        "value": "no"
                    }
                ]
            ],
            "wrapper": {
                "width": "",
                "class": "",
                "id": ""
            },
            "default_value": ""
        },
        {
            "key": "field_593be7a6d14a6",
            "label": "Typography settings",
            "name": "global_woocommerce_page_typography_settings",
            "type": "radio",
            "instructions": "Set up typography for header title",
            "required": 0,
            "conditional_logic": 0,
            "wrapper": {
                "width": "",
                "class": "",
                "id": ""
            },
            "choices": {
                "inherit": "Theme page settings inherited",
                "custom": "Custom settings for shop pages"
            },
            "allow_null": 0,
            "other_choice": 0,
            "save_other_choice": 0,
            "default_value": "",
            "layout": "horizontal",
            "return_format": "value"
        },
        {
            "key": "field_593d4af12422c",
            "label": "Title settings",
            "name": "global_woocommerce_header_title_typo",
            "type": "norebro_typo",
            "instructions": "Set up typograhy for hero titles",
            "required": 0,
            "conditional_logic": [
                [
                    {
                        "field": "field_593be7a6d14a6",
                        "operator": "==",
                        "value": "custom"
                    }
                ]
            ],
            "wrapper": {
                "width": "",
                "class": "",
                "id": ""
            },
            "add_theme_inherited": true
        },
        {
            "key": "field_593d4b332422d",
            "label": "Subtitle settings",
            "name": "global_woocommerce_header_subtitle_typo",
            "type": "norebro_typo",
            "instructions": "Set up typograhy for subtitles",
            "required": 0,
            "conditional_logic": [
                [
                    {
                        "field": "field_593be7a6d14a6",
                        "operator": "==",
                        "value": "custom"
                    }
                ]
            ],
            "wrapper": {
                "width": "",
                "class": "",
                "id": ""
            },
            "add_theme_inherited": true
        },
        {
            "key": "field_593be7a6d4b64",
            "label": "Footer",
            "name": "",
            "type": "tab",
            "instructions": "",
            "required": 0,
            "conditional_logic": 0,
            "wrapper": {
                "width": "",
                "class": "",
                "id": ""
            },
            "placement": "top",
            "endpoint": 0
        },
        {
            "key": "field_593be7a6d725e",
            "label": "Visibility",
            "name": "global_woocommerce_footer_hide",
            "type": "radio",
            "instructions": "Hide footer from shop pages?",
            "required": 0,
            "conditional_logic": 0,
            "wrapper": {
                "width": "",
                "class": "",
                "id": ""
            },
            "choices": {
                "inherit": "Theme settings inherited",
                "yes": "Hide",
                "no": "Show"
            },
            "allow_null": 0,
            "other_choice": 0,
            "save_other_choice": 0,
            "default_value": "inherit",
            "layout": "horizontal",
            "return_format": "value"
        },
        {
            "key": "field_593be7a6d7644",
            "label": "Content wrapper",
            "name": "global_woocommerce_footer_is_wrapped",
            "type": "radio",
            "instructions": "Add footer content wrapper?",
            "required": 0,
            "conditional_logic": 0,
            "wrapper": {
                "width": "",
                "class": "",
                "id": ""
            },
            "choices": {
                "inherit": "Theme page settings inherited",
                "yes": "Yes",
                "no": "No"
            },
            "allow_null": 0,
            "other_choice": 0,
            "save_other_choice": 0,
            "default_value": "inherit",
            "layout": "horizontal",
            "return_format": "value"
        },
        {
            "key": "field_5940ecce7fe58",
            "label": "Content text color",
            "name": "global_woocommerce_footer_text_color",
            "type": "norebro_color",
            "instructions": "Choose content text color",
            "required": 0,
            "conditional_logic": 0,
            "wrapper": {
                "width": "",
                "class": "",
                "id": ""
            },
            "default_value": ""
        },
        {
            "key": "field_5940e1dbc5ce2",
            "label": "Background type",
            "name": "global_woocommerce_footer_background_type",
            "type": "radio",
            "instructions": "Choose background type",
            "required": 0,
            "conditional_logic": 0,
            "wrapper": {
                "width": "",
                "class": "",
                "id": ""
            },
            "choices": {
                "inherit": "Theme settings inherited",
                "custom": "Custom image",
                "color": "Custom color"
            },
            "allow_null": 0,
            "other_choice": 0,
            "save_other_choice": 0,
            "default_value": "",
            "layout": "horizontal",
            "return_format": "value"
        },
        {
            "key": "field_593be7a6d5ec9",
            "label": "Background image",
            "name": "global_woocommerce_footer_background_image",
            "type": "image",
            "instructions": "Upload background image for footer",
            "required": 0,
            "conditional_logic": [
                [
                    {
                        "field": "field_5940e1dbc5ce2",
                        "operator": "==",
                        "value": "custom"
                    }
                ]
            ],
            "wrapper": {
                "width": "",
                "class": "",
                "id": ""
            },
            "return_format": "url",
            "preview_size": "medium",
            "library": "all",
            "min_width": "",
            "min_height": "",
            "min_size": "",
            "max_width": "",
            "max_height": 1200,
            "max_size": "",
            "mime_types": ""
        },
        {
            "key": "field_593be7a6d62c5",
            "label": "Background size",
            "name": "global_woocommerce_footer_background_size",
            "type": "select",
            "instructions": "Choose background image size type",
            "required": 0,
            "conditional_logic": [
                [
                    {
                        "field": "field_5940e1dbc5ce2",
                        "operator": "==",
                        "value": "custom"
                    }
                ]
            ],
            "wrapper": {
                "width": "",
                "class": "",
                "id": ""
            },
            "choices": {
                "auto": "Auto",
                "cover": "Cover",
                "contain": "Contain",
                "100per": "100% 100%"
            },
            "default_value": [
                "cover"
            ],
            "allow_null": 0,
            "multiple": 0,
            "ui": 0,
            "ajax": 0,
            "return_format": "value",
            "placeholder": ""
        },
        {
            "key": "field_593be7a6d66b1",
            "label": "Background position",
            "name": "global_woocommerce_footer_background_position",
            "type": "select",
            "instructions": "Choose background image position",
            "required": 0,
            "conditional_logic": [
                [
                    {
                        "field": "field_5940e1dbc5ce2",
                        "operator": "==",
                        "value": "custom"
                    }
                ]
            ],
            "wrapper": {
                "width": "",
                "class": "",
                "id": ""
            },
            "choices": {
                "center": "Center",
                "left_top": "Left top",
                "left_center": "Left center",
                "left_bottom": "Left bottom",
                "center_top": "Center top",
                "center_bottom": "Center bottom",
                "right_top": "Right top",
                "right_center": "Right center",
                "right_bottom": "Right bottom"
            },
            "default_value": [

            ],
            "allow_null": 0,
            "multiple": 0,
            "ui": 0,
            "ajax": 0,
            "return_format": "value",
            "placeholder": ""
        },
        {
            "key": "field_593be7a6d6aac",
            "label": "Background repeat",
            "name": "global_woocommerce_footer_background_repeat",
            "type": "select",
            "instructions": "Choose repeat type for background image",
            "required": 0,
            "conditional_logic": [
                [
                    {
                        "field": "field_5940e1dbc5ce2",
                        "operator": "==",
                        "value": "custom"
                    }
                ]
            ],
            "wrapper": {
                "width": "",
                "class": "",
                "id": ""
            },
            "choices": {
                "repeat": "Repeat",
                "no_repeat": "No repeat",
                "repeat_x": "Repeat only by X",
                "repeat_y": "Repeat only by Y"
            },
            "default_value": [
                "repeat"
            ],
            "allow_null": 0,
            "multiple": 0,
            "ui": 0,
            "ajax": 0,
            "return_format": "value",
            "placeholder": ""
        },
        {
            "key": "field_593be7a6d5706",
            "label": "Background color",
            "name": "global_woocommerce_footer_background_color",
            "type": "norebro_color",
            "instructions": "Choose footer background color",
            "required": 0,
            "conditional_logic": [
                [
                    {
                        "field": "field_5940e1dbc5ce2",
                        "operator": "!=",
                        "value": "inherit"
                    }
                ]
            ],
            "wrapper": {
                "width": "",
                "class": "",
                "id": ""
            },
            "default_value": ""
        },
        {
            "key": "field_5940e241c5ce3",
            "label": "Footer widget logo type",
            "name": "global_woocommerce_footer_widget_logo_type",
            "type": "select",
            "instructions": "Choose footer logo type",
            "required": 0,
            "conditional_logic": 0,
            "wrapper": {
                "width": "",
                "class": "",
                "id": ""
            },
            "choices": {
                "inherit": "Theme settings inherited",
                "light_variant": "Light variant logo",
                "dark_variant": "Dark variant logo",
                "sitename": "Site name",
                "custom": "Custom loaded image"
            },
            "default_value": [
                "inherit"
            ],
            "allow_null": 0,
            "multiple": 0,
            "ui": 0,
            "ajax": 0,
            "return_format": "value",
            "placeholder": ""
        },
        {
            "key": "field_593be7a6d4f36",
            "label": "Footer site name settings",
            "name": "global_woocommerce_footer_sitename_typo",
            "type": "norebro_typo",
            "instructions": "Custom site name typography",
            "required": 0,
            "conditional_logic": [
                [
                    {
                        "field": "field_5940e241c5ce3",
                        "operator": "==",
                        "value": "sitename"
                    }
                ]
            ],
            "wrapper": {
                "width": "",
                "class": "",
                "id": ""
            },
            "add_theme_inherited": true
        },
        {
            "key": "field_5940e2cbc5ce4",
            "label": "Footer custom logo",
            "name": "global_woocommerce_footer_custom_logo",
            "type": "image",
            "instructions": "Custom loaded image",
            "required": 0,
            "conditional_logic": [
                [
                    {
                        "field": "field_5940e241c5ce3",
                        "operator": "==",
                        "value": "custom"
                    }
                ]
            ],
            "wrapper": {
                "width": "",
                "class": "",
                "id": ""
            },
            "return_format": "url",
            "preview_size": "thumbnail",
            "library": "all",
            "min_width": "",
            "min_height": "",
            "min_size": "",
            "max_width": "",
            "max_height": "",
            "max_size": "",
            "mime_types": ""
        },
        {
            "key": "field_5940e516ada44",
            "label": "Sticky footer",
            "name": "global_woocommerce_footer_is_sticky",
            "type": "radio",
            "instructions": "Set sticky (fixed) footer on shop pages?",
            "required": 0,
            "conditional_logic": 0,
            "wrapper": {
                "width": "",
                "class": "",
                "id": ""
            },
            "choices": {
                "inherit": "Theme page settings inherited",
                "yes": "Yes",
                "no": "No"
            },
            "allow_null": 0,
            "other_choice": 0,
            "save_other_choice": 0,
            "default_value": "inherit",
            "layout": "horizontal",
            "return_format": "value"
        },
        {
            "key": "field_5935e0a52b48cexmod60",
            "label": "",
            "name": "",
            "type": "message",
            "instructions": "",
            "required": 0,
            "conditional_logic": 0,
            "wrapper": {
                "width": "",
                "class": "",
                "id": ""
            },
            "message": "<h9>Copyright Section</h9>",
            "new_lines": "",
            "esc_html": 0
        },
        {
            "key": "field_593be7a6d7a67",
            "label": "Copyright section visibility",
            "name": "global_woocommerce_footer_show_copyright_section",
            "type": "radio",
            "instructions": "Show copyright section on shop pages?",
            "required": 0,
            "conditional_logic": 0,
            "wrapper": {
                "width": "",
                "class": "",
                "id": ""
            },
            "choices": {
                "inherit": "Theme page settings inherited",
                "yes": "Show",
                "no": "Hide"
            },
            "allow_null": 0,
            "other_choice": 0,
            "save_other_choice": 0,
            "default_value": "inherit",
            "layout": "horizontal",
            "return_format": "value"
        },
        {
            "key": "field_593be7a6d7e8e",
            "label": "Copyright section background",
            "name": "global_woocommerce_footer_copyright_section_background",
            "type": "norebro_color",
            "instructions": "Choose section background color",
            "required": 0,
            "conditional_logic": 0,
            "wrapper": {
                "width": "",
                "class": "",
                "id": ""
            },
            "default_value": ""
        },
        {
            "key": "field_593be7a6d82b3",
            "label": "Copyright section text color",
            "name": "global_woocommerce_footer_copyright_section_text_color",
            "type": "norebro_color",
            "instructions": "Choose section content text color",
            "required": 0,
            "conditional_logic": 0,
            "wrapper": {
                "width": "",
                "class": "",
                "id": ""
            },
            "default_value": ""
        },
        {
            "key": "field_593be7a6d82b4",
            "label": "Copyright section links color",
            "name": "global_woocommerce_footer_copyright_section_links_color",
            "type": "norebro_color",
            "instructions": "Choose section content links color",
            "required": 0,
            "conditional_logic": 0,
            "wrapper": {
                "width": "",
                "class": "",
                "id": ""
            },
            "default_value": ""
        },
        {
            "key": "field_593beba6d4b64",
            "label": "Other Settings",
            "name": "",
            "type": "tab",
            "instructions": "",
            "required": 0,
            "conditional_logic": 0,
            "wrapper": {
                "width": "",
                "class": "",
                "id": ""
            },
            "placement": "top",
            "endpoint": 0
        },
        {
            "key": "field_593743234457tr",
            "label": "Cart icon",
            "name": "global_woocommerce_cart_icon",
            "type": "true_false",
            "default_value": true,
            "ui": true
        },
        {
            "key": "field_593770a5214bc1xmod23",
            "label": "",
            "name": "",
            "type": "message",
            "instructions": "",
            "required": 0,
            "conditional_logic": 0,
            "wrapper": {
                "width": "",
                "class": "",
                "id": ""
            },
            "message": "<h9>Sharing Settings</h9>",
            "new_lines": "",
            "esc_html": 0
        },
        {
            "key": "field_593743w37383615",
            "label": "Sharing",
            "name": "global_woocommerce_sharing",
            "type": "true_false",
            "instructions": "Disable sharing feature for product pages?",
            "required": 0,
            "conditional_logic": 0,
            "wrapper": {
                "width": "",
                "class": "",
                "id": ""
            },
            "new_lines": "",
            "esc_html": 0,
            "ui": true
        },
        {
            "key": "field_593743e37383615",
            "label": "Sharing networks",
            "name": "global_woocommerce_sharing_networks",
            "type": "select",
            "instructions": "Choose sharing social networks",
            "required": 0,
            "conditional_logic": [
                [
                    {
                        "field": "field_593743w37383615",
                        "operator": "!=",
                        "value": "1"
                    }
                ]
            ],
            "wrapper": {
                "width": "",
                "class": "",
                "id": ""
            },
            "choices": {
                "facebook": "Facebook",
                "twitter": "Twitter",
                "googleplus": "Google+",
                "pinterest": "Pinterest",
                "linkedin": "LinkedIn",
                "vk": "Vkontakte"
            },
            "default_value": [],
            "allow_null": 0,
            "multiple": 1,
            "ui": 1,
            "ajax": 1,
            "return_format": "value",
            "placeholder": ""
        }
    ],
    "location": [
        [
            {
                "param": "options_page",
                "operator": "==",
                "value": "theme-general-woocommerce"
            }
        ]
    ],
    "menu_order": 0,
    "position": "normal",
    "style": "default",
    "label_placement": "left",
    "instruction_placement": "label",
    "hide_on_screen": "",
    "active": 1,
    "description": ""
}
